{
  "images" : [
    {
      "idiom" : "universal",
      "filename" : "if_00-ELASTOFONT-STORE-READY_user-circle_2703062.png",
      "scale" : "1x"
    },
    {
      "idiom" : "universal",
      "filename" : "if_00-ELASTOFONT-STORE-READY_user-circle_2703062@2x.png",
      "scale" : "2x"
    },
    {
      "idiom" : "universal",
      "filename" : "if_00-ELASTOFONT-STORE-READY_user-circle_2703062@3x.png",
      "scale" : "3x"
    }
  ],
  "info" : {
    "version" : 1,
    "author" : "xcode"
  }
}